test/Wrapper.vcd
$date
	Fri Oct 14 17:27:49 2022
$end
$version
	Icarus Verilog
$end
$timescale
	1ps
$end
$scope module Wrapper $end
$var wire 1 ! ap_clk $end
$var wire 1 " ap_rst_n $end
$var wire 1 # core_clock $end
$var wire 1 $ core_io_cr_launch $end
$var wire 32 % core_io_cr_vals_0 [31:0] $end
$var wire 32 & core_io_cr_vals_1 [31:0] $end
$var wire 1 ' core_io_me_rd_0_cmd_ready $end
$var wire 512 ( core_io_me_rd_0_data_bits_data [511:0] $end
$var wire 1 ) core_io_me_rd_0_data_valid $end
$var wire 1 * core_reset $end
$var wire 1 + cr_clock $end
$var wire 1 , cr_io_cr_finish $end
$var wire 16 - cr_io_host_ar_bits_addr [15:0] $end
$var wire 1 . cr_io_host_ar_valid $end
$var wire 16 / cr_io_host_aw_bits_addr [15:0] $end
$var wire 1 0 cr_io_host_aw_valid $end
$var wire 1 1 cr_io_host_b_ready $end
$var wire 1 2 cr_io_host_r_ready $end
$var wire 32 3 cr_io_host_w_bits_data [31:0] $end
$var wire 1 4 cr_io_host_w_valid $end
$var wire 1 5 cr_reset $end
$var wire 1 6 finish $end
$var wire 32 7 m_axi_gmem_ARADDR [31:0] $end
$var wire 2 8 m_axi_gmem_ARBURST [1:0] $end
$var wire 4 9 m_axi_gmem_ARCACHE [3:0] $end
$var wire 8 : m_axi_gmem_ARID [7:0] $end
$var wire 1 ; m_axi_gmem_ARLEN $end
$var wire 2 < m_axi_gmem_ARLOCK [1:0] $end
$var wire 3 = m_axi_gmem_ARPROT [2:0] $end
$var wire 4 > m_axi_gmem_ARQOS [3:0] $end
$var wire 1 ? m_axi_gmem_ARREADY $end
$var wire 4 @ m_axi_gmem_ARREGION [3:0] $end
$var wire 3 A m_axi_gmem_ARSIZE [2:0] $end
$var wire 1 B m_axi_gmem_ARUSER $end
$var wire 1 C m_axi_gmem_ARVALID $end
$var wire 32 D m_axi_gmem_AWADDR [31:0] $end
$var wire 2 E m_axi_gmem_AWBURST [1:0] $end
$var wire 4 F m_axi_gmem_AWCACHE [3:0] $end
$var wire 8 G m_axi_gmem_AWID [7:0] $end
$var wire 1 H m_axi_gmem_AWLEN $end
$var wire 2 I m_axi_gmem_AWLOCK [1:0] $end
$var wire 3 J m_axi_gmem_AWPROT [2:0] $end
$var wire 4 K m_axi_gmem_AWQOS [3:0] $end
$var wire 1 L m_axi_gmem_AWREADY $end
$var wire 4 M m_axi_gmem_AWREGION [3:0] $end
$var wire 3 N m_axi_gmem_AWSIZE [2:0] $end
$var wire 1 O m_axi_gmem_AWUSER $end
$var wire 1 P m_axi_gmem_AWVALID $end
$var wire 8 Q m_axi_gmem_BID [7:0] $end
$var wire 1 R m_axi_gmem_BREADY $end
$var wire 2 S m_axi_gmem_BRESP [1:0] $end
$var wire 1 T m_axi_gmem_BUSER $end
$var wire 1 U m_axi_gmem_BVALID $end
$var wire 512 V m_axi_gmem_RDATA [511:0] $end
$var wire 8 W m_axi_gmem_RID [7:0] $end
$var wire 1 X m_axi_gmem_RLAST $end
$var wire 1 Y m_axi_gmem_RREADY $end
$var wire 2 Z m_axi_gmem_RRESP [1:0] $end
$var wire 1 [ m_axi_gmem_RUSER $end
$var wire 1 \ m_axi_gmem_RVALID $end
$var wire 512 ] m_axi_gmem_WDATA [511:0] $end
$var wire 8 ^ m_axi_gmem_WID [7:0] $end
$var wire 1 _ m_axi_gmem_WLAST $end
$var wire 1 ` m_axi_gmem_WREADY $end
$var wire 64 a m_axi_gmem_WSTRB [63:0] $end
$var wire 1 b m_axi_gmem_WUSER $end
$var wire 1 c m_axi_gmem_WVALID $end
$var wire 1 d me_clock $end
$var wire 32 e me_io_me_rd_0_cmd_bits_addr [31:0] $end
$var wire 1 f me_io_me_rd_0_cmd_bits_len $end
$var wire 1 g me_io_me_rd_0_cmd_valid $end
$var wire 1 h me_io_me_rd_0_data_ready $end
$var wire 1 i me_io_mem_ar_ready $end
$var wire 1 j me_io_mem_aw_ready $end
$var wire 1 k me_io_mem_b_valid $end
$var wire 512 l me_io_mem_r_bits_data [511:0] $end
$var wire 8 m me_io_mem_r_bits_id [7:0] $end
$var wire 1 n me_io_mem_r_bits_last $end
$var wire 1 o me_io_mem_r_valid $end
$var wire 1 p me_io_mem_w_ready $end
$var wire 1 q me_io_mem_w_valid $end
$var wire 1 r me_reset $end
$var wire 16 s s_axi_control_ARADDR [15:0] $end
$var wire 1 t s_axi_control_ARREADY $end
$var wire 1 u s_axi_control_ARVALID $end
$var wire 16 v s_axi_control_AWADDR [15:0] $end
$var wire 1 w s_axi_control_AWREADY $end
$var wire 1 x s_axi_control_AWVALID $end
$var wire 1 y s_axi_control_BREADY $end
$var wire 2 z s_axi_control_BRESP [1:0] $end
$var wire 1 { s_axi_control_BVALID $end
$var wire 32 | s_axi_control_RDATA [31:0] $end
$var wire 1 } s_axi_control_RREADY $end
$var wire 2 ~ s_axi_control_RRESP [1:0] $end
$var wire 1 !" s_axi_control_RVALID $end
$var wire 32 "" s_axi_control_WDATA [31:0] $end
$var wire 1 #" s_axi_control_WREADY $end
$var wire 4 $" s_axi_control_WSTRB [3:0] $end
$var wire 1 %" s_axi_control_WVALID $end
$var wire 1 &" me_io_mem_w_bits_last $end
$var wire 1 '" me_io_mem_aw_valid $end
$var wire 1 (" me_io_mem_ar_valid $end
$var wire 1 )" me_io_mem_ar_bits_len $end
$var wire 8 *" me_io_mem_ar_bits_id [7:0] $end
$var wire 32 +" me_io_mem_ar_bits_addr [31:0] $end
$var wire 1 ," me_io_me_rd_0_data_valid $end
$var wire 512 -" me_io_me_rd_0_data_bits_data [511:0] $end
$var wire 1 ." me_io_me_rd_0_cmd_ready $end
$var wire 1 /" cr_io_host_w_ready $end
$var wire 1 0" cr_io_host_r_valid $end
$var wire 32 1" cr_io_host_r_bits_data [31:0] $end
$var wire 1 2" cr_io_host_b_valid $end
$var wire 1 3" cr_io_host_aw_ready $end
$var wire 1 4" cr_io_host_ar_ready $end
$var wire 32 5" cr_io_cr_vals_1 [31:0] $end
$var wire 32 6" cr_io_cr_vals_0 [31:0] $end
$var wire 1 7" cr_io_cr_launch $end
$var wire 1 8" core_io_me_rd_0_data_ready $end
$var wire 1 9" core_io_me_rd_0_cmd_valid $end
$var wire 1 :" core_io_me_rd_0_cmd_bits_len $end
$var wire 32 ;" core_io_me_rd_0_cmd_bits_addr [31:0] $end
$var wire 1 <" core_io_cr_finish $end
$scope module core $end
$var wire 1 # clock $end
$var wire 1 =" fetch_clock $end
$var wire 32 >" fetch_io_ins_baddr [31:0] $end
$var wire 32 ?" fetch_io_ins_count [31:0] $end
$var wire 1 @" fetch_io_launch $end
$var wire 1 A" fetch_io_me_rd_cmd_ready $end
$var wire 512 B" fetch_io_me_rd_data_bits_data [511:0] $end
$var wire 1 C" fetch_io_me_rd_data_valid $end
$var wire 1 D" fetch_reset $end
$var wire 1 $ io_cr_launch $end
$var wire 32 E" io_cr_vals_0 [31:0] $end
$var wire 32 F" io_cr_vals_1 [31:0] $end
$var wire 32 G" io_me_rd_0_cmd_bits_addr [31:0] $end
$var wire 1 :" io_me_rd_0_cmd_bits_len $end
$var wire 1 ' io_me_rd_0_cmd_ready $end
$var wire 1 9" io_me_rd_0_cmd_valid $end
$var wire 512 H" io_me_rd_0_data_bits_data [511:0] $end
$var wire 1 8" io_me_rd_0_data_ready $end
$var wire 1 ) io_me_rd_0_data_valid $end
$var wire 1 * reset $end
$var wire 1 <" io_cr_finish $end
$var wire 1 I" fetch_io_me_rd_data_ready $end
$var wire 1 J" fetch_io_me_rd_cmd_valid $end
$var wire 1 K" fetch_io_me_rd_cmd_bits_len $end
$var wire 32 L" fetch_io_me_rd_cmd_bits_addr [31:0] $end
$var wire 1 M" _ctr_T_1 $end
$var reg 1 N" ctr $end
$var reg 2 O" state [1:0] $end
$scope module fetch $end
$var wire 1 P" _T_26 $end
$var wire 2 Q" _rlen_T_1 [1:0] $end
$var wire 1 =" clock $end
$var wire 1 R" inst_q_clock $end
$var wire 1 S" inst_q_io_deq_ready $end
$var wire 512 T" inst_q_io_enq_bits [511:0] $end
$var wire 1 U" inst_q_io_enq_valid $end
$var wire 1 V" inst_q_reset $end
$var wire 32 W" io_ins_baddr [31:0] $end
$var wire 32 X" io_ins_count [31:0] $end
$var wire 1 @" io_launch $end
$var wire 32 Y" io_me_rd_cmd_bits_addr [31:0] $end
$var wire 1 K" io_me_rd_cmd_bits_len $end
$var wire 1 A" io_me_rd_cmd_ready $end
$var wire 512 Z" io_me_rd_data_bits_data [511:0] $end
$var wire 1 I" io_me_rd_data_ready $end
$var wire 1 C" io_me_rd_data_valid $end
$var wire 1 [" pulse $end
$var wire 1 D" reset $end
$var wire 30 \" xsize [29:0] $end
$var wire 1 J" io_me_rd_cmd_valid $end
$var wire 1 ]" inst_q_io_enq_ready $end
$var wire 1 ^" inst_q_io_deq_valid $end
$var wire 512 _" inst_q_io_deq_bits [511:0] $end
$var wire 2 `" inst_q_io_count [1:0] $end
$var wire 1 a" dec_io_isLoad $end
$var wire 1 b" dec_io_isCompute $end
$var wire 128 c" dec_io_inst [127:0] $end
$var wire 32 d" _xrem_T_3 [31:0] $end
$var wire 30 e" _xrem_T_1 [29:0] $end
$var wire 32 f" _raddr_T_1 [31:0] $end
$var wire 9 g" _packInstSelect_T_1 [8:0] $end
$var wire 512 h" _dec_io_inst_T [511:0] $end
$var wire 1 i" _T_6 $end
$var wire 1 j" _T_12 $end
$var wire 9 k" _GEN_9 [8:0] $end
$var wire 3 l" _GEN_8 [2:0] $end
$var wire 2 m" _GEN_51 [1:0] $end
$var wire 30 n" _GEN_5 [29:0] $end
$var wire 32 o" _GEN_45 [31:0] $end
$var wire 32 p" _GEN_44 [31:0] $end
$var wire 32 q" _GEN_41 [31:0] $end
$var wire 32 r" _GEN_40 [31:0] $end
$var wire 30 s" _GEN_4 [29:0] $end
$var wire 32 t" _GEN_36 [31:0] $end
$var wire 32 u" _GEN_35 [31:0] $end
$var wire 9 v" _GEN_32 [8:0] $end
$var wire 32 w" _GEN_30 [31:0] $end
$var wire 32 x" _GEN_29 [31:0] $end
$var wire 3 y" _GEN_28 [2:0] $end
$var wire 3 z" _GEN_27 [2:0] $end
$var wire 9 {" _GEN_26 [8:0] $end
$var wire 3 |" _GEN_25 [2:0] $end
$var wire 9 }" _GEN_24 [8:0] $end
$var wire 32 ~" _GEN_23 [31:0] $end
$var wire 32 !# _GEN_22 [31:0] $end
$var wire 32 "# _GEN_21 [31:0] $end
$var wire 3 ## _GEN_20 [2:0] $end
$var wire 30 $# _GEN_2 [29:0] $end
$var wire 32 %# _GEN_19 [31:0] $end
$var wire 32 &# _GEN_18 [31:0] $end
$var wire 32 '# _GEN_17 [31:0] $end
$var wire 3 (# _GEN_16 [2:0] $end
$var wire 32 )# _GEN_15 [31:0] $end
$var wire 32 *# _GEN_13 [31:0] $end
$var wire 9 +# _GEN_11 [8:0] $end
$var wire 3 ,# _GEN_10 [2:0] $end
$var wire 30 -# _GEN_0 [29:0] $end
$var reg 1 .# ilen $end
$var reg 512 /# inst [511:0] $end
$var reg 9 0# packInstSelect [8:0] $end
$var reg 32 1# raddr [31:0] $end
$var reg 1 2# rlen $end
$var reg 1 3# s1_launch $end
$var reg 3 4# state [2:0] $end
$var reg 32 5# xrem [31:0] $end
$scope module dec $end
$var wire 128 6# _csignals_T [127:0] $end
$var wire 128 7# _csignals_T_2 [127:0] $end
$var wire 1 8# cs_val_inst $end
$var wire 128 9# io_inst [127:0] $end
$var wire 1 b" io_isCompute $end
$var wire 1 a" io_isLoad $end
$var wire 2 :# cs_op_type [1:0] $end
$var wire 2 ;# _csignals_T_5 [1:0] $end
$var wire 1 <# _csignals_T_3 $end
$var wire 1 =# _csignals_T_1 $end
$upscope $end
$scope module inst_q $end
$var wire 1 R" clock $end
$var wire 2 ># io_count [1:0] $end
$var wire 512 ?# io_deq_bits [511:0] $end
$var wire 1 S" io_deq_ready $end
$var wire 1 ^" io_deq_valid $end
$var wire 512 @# io_enq_bits [511:0] $end
$var wire 1 ]" io_enq_ready $end
$var wire 1 U" io_enq_valid $end
$var wire 1 A# queue_clock $end
$var wire 1 B# queue_io_deq_ready $end
$var wire 512 C# queue_io_enq_bits [511:0] $end
$var wire 1 D# queue_io_enq_valid $end
$var wire 1 E# queue_reset $end
$var wire 1 V" reset $end
$var wire 1 F# queue_io_enq_ready $end
$var wire 1 G# queue_io_deq_valid $end
$var wire 512 H# queue_io_deq_bits [511:0] $end
$var wire 2 I# queue_io_count [1:0] $end
$scope module queue $end
$var wire 1 A# clock $end
$var wire 2 J# io_count [1:0] $end
$var wire 512 K# io_deq_bits [511:0] $end
$var wire 1 B# io_deq_ready $end
$var wire 1 G# io_deq_valid $end
$var wire 512 L# io_enq_bits [511:0] $end
$var wire 1 F# io_enq_ready $end
$var wire 1 D# io_enq_valid $end
$var wire 1 M# queue_clock $end
$var wire 1 N# queue_io_deq_ready $end
$var wire 512 O# queue_io_enq_bits [511:0] $end
$var wire 1 P# queue_io_enq_valid $end
$var wire 1 Q# queue_reset $end
$var wire 1 E# reset $end
$var wire 1 R# queue_io_enq_ready $end
$var wire 1 S# queue_io_deq_valid $end
$var wire 512 T# queue_io_deq_bits [511:0] $end
$var wire 2 U# queue_io_count [1:0] $end
$scope module queue $end
$var wire 1 M# clock $end
$var wire 1 V# do_deq $end
$var wire 1 W# do_enq $end
$var wire 1 X# empty $end
$var wire 1 Y# full $end
$var wire 2 Z# io_count [1:0] $end
$var wire 512 [# io_deq_bits [511:0] $end
$var wire 1 N# io_deq_ready $end
$var wire 1 S# io_deq_valid $end
$var wire 512 \# io_enq_bits [511:0] $end
$var wire 1 R# io_enq_ready $end
$var wire 1 P# io_enq_valid $end
$var wire 1 ]# ptr_match $end
$var wire 1 ^# ram_MPORT_addr $end
$var wire 512 _# ram_MPORT_data [511:0] $end
$var wire 1 `# ram_MPORT_en $end
$var wire 1 a# ram_MPORT_mask $end
$var wire 1 b# ram_io_deq_bits_MPORT_addr $end
$var wire 512 c# ram_io_deq_bits_MPORT_data [511:0] $end
$var wire 1 d# ram_io_deq_bits_MPORT_en $end
$var wire 1 Q# reset $end
$var wire 1 e# ptr_diff $end
$var wire 2 f# _io_count_T_1 [1:0] $end
$var wire 2 g# _GEN_11 [1:0] $end
$var reg 1 h# deq_ptr_value $end
$var reg 1 i# enq_ptr_value $end
$var reg 1 j# maybe_full $end
$upscope $end
$upscope $end
$upscope $end
$upscope $end
$upscope $end
$scope module cr $end
$var wire 1 k# _GEN_0 $end
$var wire 1 l# _T_18 $end
$var wire 1 m# _T_2 $end
$var wire 1 n# _T_6 $end
$var wire 1 o# _pulse_T_3 $end
$var wire 1 + clock $end
$var wire 1 , io_cr_finish $end
$var wire 32 p# io_cr_vals_0 [31:0] $end
$var wire 32 q# io_cr_vals_1 [31:0] $end
$var wire 16 r# io_host_ar_bits_addr [15:0] $end
$var wire 1 4" io_host_ar_ready $end
$var wire 1 . io_host_ar_valid $end
$var wire 16 s# io_host_aw_bits_addr [15:0] $end
$var wire 1 0 io_host_aw_valid $end
$var wire 1 1 io_host_b_ready $end
$var wire 1 2 io_host_r_ready $end
$var wire 1 0" io_host_r_valid $end
$var wire 32 t# io_host_w_bits_data [31:0] $end
$var wire 1 4 io_host_w_valid $end
$var wire 1 5 reset $end
$var wire 3 u# slaveRegWriteSelect [2:0] $end
$var wire 3 v# slaveRegReadSelect [2:0] $end
$var wire 32 w# pulse [31:0] $end
$var wire 1 /" io_host_w_ready $end
$var wire 32 x# io_host_r_bits_data [31:0] $end
$var wire 1 2" io_host_b_valid $end
$var wire 1 3" io_host_aw_ready $end
$var wire 1 7" io_cr_launch $end
$var wire 32 y# _rdata_T_8 [31:0] $end
$var wire 32 z# _rdata_T_3 [31:0] $end
$var wire 32 {# _rdata_T_13 [31:0] $end
$var wire 32 |# _rdata_T_12 [31:0] $end
$var wire 32 }# _rdata_T_11 [31:0] $end
$var wire 2 ~# _GEN_7 [1:0] $end
$var reg 1 !$ pulse_REG $end
$var reg 1 "$ rstate $end
$var reg 32 #$ slaveReg_0 [31:0] $end
$var reg 32 $$ slaveReg_1 [31:0] $end
$var reg 32 %$ slaveReg_2 [31:0] $end
$var reg 32 &$ slaveReg_3 [31:0] $end
$var reg 32 '$ slaveReg_4 [31:0] $end
$var reg 32 ($ slaveReg_5 [31:0] $end
$var reg 32 )$ waddr [31:0] $end
$var reg 2 *$ wstate [1:0] $end
$upscope $end
$scope module me $end
$var wire 1 +$ MEcmd_Qs_0_clock $end
$var wire 1 ,$ MEcmd_Qs_0_io_deq_ready $end
$var wire 32 -$ MEcmd_Qs_0_io_enq_bits_addr [31:0] $end
$var wire 1 .$ MEcmd_Qs_0_io_enq_bits_len $end
$var wire 1 /$ MEcmd_Qs_0_io_enq_valid $end
$var wire 1 0$ MEcmd_Qs_0_reset $end
$var wire 1 1$ _MEcmd_Qs_0_io_deq_ready_T $end
$var wire 1 2$ _MEcmd_Qs_0_io_deq_ready_T_1 $end
$var wire 1 3$ _T $end
$var wire 1 4$ _T_14 $end
$var wire 1 5$ _T_4 $end
$var wire 16 6$ _availableEntriesNext_T [15:0] $end
$var wire 1 7$ _io_me_rd_0_data_valid_T_1 $end
$var wire 16 8$ _newVec_T [15:0] $end
$var wire 1 9$ any_cmd_valid $end
$var wire 1 :$ availableEntriesEn $end
$var wire 1 d clock $end
$var wire 32 ;$ io_me_rd_0_cmd_bits_addr [31:0] $end
$var wire 1 f io_me_rd_0_cmd_bits_len $end
$var wire 1 ." io_me_rd_0_cmd_ready $end
$var wire 1 g io_me_rd_0_cmd_valid $end
$var wire 1 h io_me_rd_0_data_ready $end
$var wire 1 ," io_me_rd_0_data_valid $end
$var wire 1 )" io_mem_ar_bits_len $end
$var wire 1 i io_mem_ar_ready $end
$var wire 1 (" io_mem_ar_valid $end
$var wire 1 j io_mem_aw_ready $end
$var wire 1 k io_mem_b_valid $end
$var wire 512 <$ io_mem_r_bits_data [511:0] $end
$var wire 8 =$ io_mem_r_bits_id [7:0] $end
$var wire 1 n io_mem_r_bits_last $end
$var wire 1 o io_mem_r_valid $end
$var wire 1 &" io_mem_w_bits_last $end
$var wire 1 p io_mem_w_ready $end
$var wire 1 q io_mem_w_valid $end
$var wire 3 >$ localTag_out_client_id [2:0] $end
$var wire 3 ?$ meTag_array_client_id_localTag_out_MPORT_data [2:0] $end
$var wire 1 @$ meTag_array_client_id_localTag_out_MPORT_en $end
$var wire 3 A$ meTag_array_client_id_rdwrPort_data [2:0] $end
$var wire 1 B$ meTag_array_client_id_rdwrPort_en $end
$var wire 1 C$ meTag_array_client_id_rdwrPort_mask $end
$var wire 16 D$ newEntry [15:0] $end
$var wire 1 E$ oneHotIdx_1 $end
$var wire 1 F$ oneHotIdx_10 $end
$var wire 1 G$ oneHotIdx_11 $end
$var wire 1 H$ oneHotIdx_12 $end
$var wire 1 I$ oneHotIdx_13 $end
$var wire 1 J$ oneHotIdx_14 $end
$var wire 1 K$ oneHotIdx_15 $end
$var wire 1 L$ oneHotIdx_2 $end
$var wire 1 M$ oneHotIdx_3 $end
$var wire 1 N$ oneHotIdx_4 $end
$var wire 1 O$ oneHotIdx_5 $end
$var wire 1 P$ oneHotIdx_6 $end
$var wire 1 Q$ oneHotIdx_7 $end
$var wire 1 R$ oneHotIdx_8 $end
$var wire 1 S$ oneHotIdx_9 $end
$var wire 1 r reset $end
$var wire 8 T$ updateEntry_lo [7:0] $end
$var wire 16 U$ updateEntry [15:0] $end
$var wire 16 V$ resetEntry [15:0] $end
$var wire 1 W$ oneHotIdx_0 $end
$var wire 8 X$ oHot_lo [7:0] $end
$var wire 1 Y$ me_select $end
$var wire 4 Z$ meTag_array_client_id_rdwrPort_addr [3:0] $end
$var wire 4 [$ meTag_array_client_id_localTag_out_MPORT_addr [3:0] $end
$var wire 1 '" io_mem_aw_valid $end
$var wire 8 \$ io_mem_ar_bits_id [7:0] $end
$var wire 32 ]$ io_mem_ar_bits_addr [31:0] $end
$var wire 512 ^$ io_me_rd_0_data_bits_data [511:0] $end
$var wire 4 _$ firstPostn [3:0] $end
$var wire 16 `$ _updateEntry_T_16 [15:0] $end
$var wire 1 a$ _io_me_wr_0_cmd_ready_T $end
$var wire 4 b$ _bitPostn_T_9 [3:0] $end
$var wire 4 c$ _bitPostn_T_8 [3:0] $end
$var wire 4 d$ _bitPostn_T_7 [3:0] $end
$var wire 4 e$ _bitPostn_T_6 [3:0] $end
$var wire 4 f$ _bitPostn_T_5 [3:0] $end
$var wire 4 g$ _bitPostn_T_4 [3:0] $end
$var wire 4 h$ _bitPostn_T_3 [3:0] $end
$var wire 4 i$ _bitPostn_T_2 [3:0] $end
$var wire 4 j$ _bitPostn_T_13 [3:0] $end
$var wire 4 k$ _bitPostn_T_12 [3:0] $end
$var wire 4 l$ _bitPostn_T_11 [3:0] $end
$var wire 4 m$ _bitPostn_T_10 [3:0] $end
$var wire 4 n$ _bitPostn_T_1 [3:0] $end
$var wire 4 o$ _bitPostn_T [3:0] $end
$var wire 1 p$ _T_1 $end
$var wire 2 q$ _GEN_26 [1:0] $end
$var wire 2 r$ _GEN_25 [1:0] $end
$var wire 4 s$ _GEN_14 [3:0] $end
$var wire 1 t$ MEcmd_Qs_0_io_enq_ready $end
$var wire 1 u$ MEcmd_Qs_0_io_deq_valid $end
$var wire 1 v$ MEcmd_Qs_0_io_deq_bits_len $end
$var wire 32 w$ MEcmd_Qs_0_io_deq_bits_addr [31:0] $end
$var reg 16 x$ availableEntries [15:0] $end
$var reg 512 y$ io_me_rd_0_data_bits_data_REG [511:0] $end
$var reg 1 z$ io_me_rd_0_data_valid_REG $end
$var reg 4 {$ meTag_array_client_id_localTag_out_MPORT_addr_pipe_0 [3:0] $end
$var reg 1 |$ meTag_array_client_id_localTag_out_MPORT_en_pipe_0 $end
$var reg 1 }$ wr_cnt $end
$var reg 2 ~$ wstate [1:0] $end
$scope module MEcmd_Qs_0 $end
$var wire 1 +$ clock $end
$var wire 1 !% do_deq $end
$var wire 1 "% do_enq $end
$var wire 1 #% empty $end
$var wire 32 $% io_deq_bits_addr [31:0] $end
$var wire 1 v$ io_deq_bits_len $end
$var wire 1 ,$ io_deq_ready $end
$var wire 1 u$ io_deq_valid $end
$var wire 32 %% io_enq_bits_addr [31:0] $end
$var wire 1 .$ io_enq_bits_len $end
$var wire 1 t$ io_enq_ready $end
$var wire 1 /$ io_enq_valid $end
$var wire 1 &% ram_addr_MPORT_addr $end
$var wire 32 '% ram_addr_MPORT_data [31:0] $end
$var wire 1 (% ram_addr_MPORT_en $end
$var wire 1 )% ram_addr_MPORT_mask $end
$var wire 1 *% ram_addr_io_deq_bits_MPORT_addr $end
$var wire 32 +% ram_addr_io_deq_bits_MPORT_data [31:0] $end
$var wire 1 ,% ram_addr_io_deq_bits_MPORT_en $end
$var wire 1 -% ram_len_MPORT_addr $end
$var wire 1 .% ram_len_MPORT_data $end
$var wire 1 /% ram_len_MPORT_en $end
$var wire 1 0% ram_len_MPORT_mask $end
$var wire 1 1% ram_len_io_deq_bits_MPORT_addr $end
$var wire 1 2% ram_len_io_deq_bits_MPORT_data $end
$var wire 1 3% ram_len_io_deq_bits_MPORT_en $end
$var wire 1 0$ reset $end
$var reg 1 4% maybe_full $end
$upscope $end
$upscope $end
$upscope $end
$enddefinitions $end
$comment Show the parameter values. $end
$dumpall
$end
#0
$dumpvars
04%
13%
x2%
01%
10%
0/%
x.%
0-%
1,%
bx +%
0*%
1)%
0(%
bx '%
0&%
bx %%
bx $%
1#%
0"%
0!%
b0 ~$
0}$
1|$
bz {$
0z$
b0 y$
b1111111111111111 x$
bx w$
xv$
0u$
1t$
b0 s$
b0 r$
b0 q$
1p$
b1111 o$
b1111 n$
b1111 m$
b1111 l$
b1111 k$
b1111 j$
b1111 i$
b1111 h$
b1111 g$
b1111 f$
b1111 e$
b1111 d$
b1111 c$
b1111 b$
1a$
bx `$
b0 _$
b0 ^$
b0 ]$
b0 \$
bz [$
b0 Z$
1Y$
b1 X$
1W$
b1 V$
b0 U$
bx T$
0S$
0R$
0Q$
0P$
0O$
0N$
0M$
0L$
0K$
0J$
0I$
0H$
0G$
0F$
0E$
b1111111111111110 D$
1C$
0B$
b0 A$
1@$
bx ?$
bx >$
bz =$
bz <$
bx ;$
0:$
09$
b1111111111111110 8$
07$
b1111111111111111 6$
15$
04$
03$
02$
01$
10$
0/$
x.$
bx -$
0,$
1+$
b0 *$
b1111111111111111 )$
b0 ($
b0 '$
b0 &$
b0 %$
b0 $$
b0 #$
0"$
0!$
b0 ~#
b0 }#
b0 |#
b0 {#
b0 z#
b0 y#
b0 x#
b0 w#
bx v#
b111 u#
bx t#
bx s#
bx r#
b0 q#
b0 p#
0o#
0n#
0m#
0l#
0k#
0j#
0i#
0h#
b0 g#
b0 f#
0e#
1d#
bx c#
0b#
1a#
0`#
b0 _#
0^#
1]#
b0 \#
bx [#
b0 Z#
0Y#
1X#
0W#
0V#
b0 U#
bx T#
0S#
1R#
1Q#
0P#
b0 O#
0N#
1M#
b0 L#
bx K#
b0 J#
b0 I#
bx H#
0G#
1F#
1E#
0D#
b0 C#
0B#
1A#
b0 @#
bx ?#
b0 >#
0=#
1<#
b10 ;#
b10 :#
b0 9#
18#
b0 7#
b0 6#
bx 5#
b0 4#
03#
x2#
bx 1#
b0 0#
b0 /#
x.#
b1 -#
b0 ,#
b0 +#
bx *#
bx )#
b0x (#
bx '#
bx &#
bx %#
b111111111111111111111111111101 $#
b0x ##
bx "#
bx !#
bx ~"
b10000000 }"
b0 |"
b0 {"
b0 z"
b0 y"
b0x x"
b0x w"
b0 v"
b0x u"
b0x t"
b0x s"
b0x r"
b0x q"
b0x p"
b0x o"
b0x n"
b0x m"
b1x l"
b0 k"
0j"
1i"
b0 h"
b10000000 g"
bx f"
b111111111111111111111111111101 e"
bx d"
b0 c"
1b"
0a"
b0 `"
bx _"
0^"
1]"
b111111111111111111111111111111 \"
0["
b0 Z"
bx Y"
b0 X"
b0 W"
1V"
0U"
b0 T"
0S"
1R"
b1 Q"
0P"
b0 O"
0N"
1M"
bx L"
xK"
0J"
0I"
b0 H"
bx G"
b0 F"
b0 E"
1D"
0C"
b0 B"
1A"
0@"
b0 ?"
b0 >"
1="
0<"
bx ;"
x:"
09"
08"
07"
b0 6"
b0 5"
14"
13"
02"
b0 1"
00"
0/"
1."
b0 -"
0,"
b0 +"
b0 *"
0)"
0("
0'"
1&"
0%"
bz $"
0#"
bx ""
0!"
b0 ~
1}
b0 |
0{
b0 z
1y
0x
1w
bx v
0u
1t
bx s
1r
0q
0p
0o
0n
bz m
bz l
zk
1j
1i
0h
0g
xf
bx e
1d
0c
0b
b0 a
0`
1_
b0 ^
b0 ]
0\
z[
bz Z
1Y
0X
bz W
bz V
zU
zT
bz S
zR
bz Q
0P
0O
b110 N
b0 M
1L
b0 K
b0 J
b0 I
0H
b0 G
b11 F
b1 E
b0 D
0C
0B
b110 A
b0 @
1?
b0 >
b0 =
b0 <
0;
b0 :
b11 9
b1 8
b0 7
06
15
04
bx 3
12
11
00
bx /
0.
bx -
0,
1+
1*
0)
b0 (
1'
b0 &
b0 %
0$
1#
0"
1!
$end
#2000
0+
0M#
0A#
0R"
0="
0#
0+$
0d
0!
#4000
b10000000 f"
b0 '%
b0 -$
b0 %%
b0 e
b0 ;$
b0 ;"
b0 G"
b0 L"
b0 Y"
b0 1#
1+
1M#
1A#
1R"
1="
1#
1+$
1d
1!
#6000
0+
0M#
0A#
0R"
0="
0#
0+$
0d
0!
#8000
1+
1M#
1A#
1R"
1="
1#
1+$
1d
1!
#10000
0+
0M#
0A#
0R"
0="
0#
0+$
0d
0!
#12000
bx U$
05
0Q#
0E#
0V"
0D"
0*
00$
0r
1"
1+
1M#
1A#
1R"
1="
1#
1+$
1d
1!
#14000
0+
0M#
0A#
0R"
0="
0#
0+$
0d
0!
#16000
bz _#
bz O#
bz \#
bz C#
bz L#
bz T"
bz @#
bz B"
bz Z"
bz (
bz H"
bz -"
bz ^$
bz y$
1+
1M#
1A#
1R"
1="
1#
1+$
1d
1!
#18000
0+
0M#
0A#
0R"
0="
0#
0+$
0d
0!
#20000
1l#
14
1%"
b0 3
b0 t#
b0 ""
10
1x
b1100 /
b1100 s#
b1100 v
1+
1M#
1A#
1R"
1="
1#
1+$
1d
1!
#22000
0+
0M#
0A#
0R"
0="
0#
0+$
0d
0!
#24000
00
0x
0l#
1n#
b11 u#
0w
03"
1#"
1/"
b1 *$
b1100 )$
1+
1M#
1A#
1R"
1="
1#
1+$
1d
1!
#26000
0+
0M#
0A#
0R"
0="
0#
0+$
0d
0!
#28000
04
0%"
0n#
0#"
0/"
1{
12"
b10 *$
1+
1M#
1A#
1R"
1="
1#
1+$
1d
1!
#30000
0+
0M#
0A#
0R"
0="
0#
0+$
0d
0!
#32000
1w
13"
0{
02"
b0 *$
1+
1M#
1A#
1R"
1="
1#
1+$
1d
1!
#34000
0+
0M#
0A#
0R"
0="
0#
0+$
0d
0!
#36000
1l#
14
1%"
b10000 3
b10000 t#
b10000 ""
10
1x
b1000 /
b1000 s#
b1000 v
1+
1M#
1A#
1R"
1="
1#
1+$
1d
1!
#38000
0+
0M#
0A#
0R"
0="
0#
0+$
0d
0!
#40000
00
0x
0l#
1n#
b10 u#
0w
03"
1#"
1/"
b1 *$
b1000 )$
1+
1M#
1A#
1R"
1="
1#
1+$
1d
1!
#42000
0+
0M#
0A#
0R"
0="
0#
0+$
0d
0!
